{
  "description": "De parkeervakken in de stad worden hier als een lijst getoond.",
  "organization_name": "Gemeente Amsterdam",
  "organization_oin": "00000001002564440000",
  "service_name": "Parkeervakken API Amsterdam",
  "api_type": "rest_json",
  "api_authentication": "unknown",
  "tags": [
    "imported"
  ],
  "environments": [
    {
      "name": "production",
      "api_url": "https://api.data.amsterdam.nl/parkeervakken/?format=api"
    }
  ],
  "contact": {},
  "is_reference_implementation": false,
  "terms_of_use": {
    "government_only": false,
    "pay_per_use": false
  }
}
